 _____                     _             _          ___  ______ _____ 
|_   _|                   | |           (_)        / _ \ |  ___|  __ \
  | | _ ____   _____ _ __ | |_ __ _ _ __ _  ___   / /_\ \| |_  | |  \/
  | || '_ \ \ / / _ \ '_ \| __/ _` | '__| |/ _ \  |  _  ||  _| | | __ 
 _| || | | \ V /  __/ | | | || (_| | |  | | (_) | | | | || |   | |_\ \
 \___/_| |_|\_/ \___|_| |_|\__\__,_|_|  |_|\___/  \_| |_/\_|    \____/
                                                                      
                                                                      